{
    "inputMessageMetadata": {},
    "outputMessageMetadata": {
        "messagePayload": {
            "connectorName": "#_custom_mule_metadata_type_#",
            "typeId": "getAverageSalaryResponse"
        }
    },
    "id": "16662a82-ad16-428d-9343-2a408320bc85",
    "version": "5.2.0.0"
}